…
  select(
    employee_id, race
  ) %>%
  filter(
     is.na(race)
  ) %>%
  group_by(
    employee_id
  ) %>%
  summarise(
    miss = sum(is.na(race))
  )
```

    ## # A tibble: 220 x 2
    ##    employee_id  miss
    ##          <dbl> <int>
    ##  1           8    10
    ##  2          10    12
    ##  3          13     9
    ##  4          22     9
    ##  5          36    12
    ##  6          38    12
    ##  7          48    10
    ##  8          49     7
    ##  9          51     8
    ## 10          55     9
    ## # … with 210 more rows
…
``` r
practice_data %>%
  select(
    health_score, quarter, age_cat
  ) %>%
  group_by(
    quarter, age_cat
  ) %>%
  summarise(
    avg_score = mean(health_score)
  )
```

    ## # A tibble: 36 x 3
    ## # Groups:   quarter [12]
    ##    quarter age_cat avg_score
    ##      <dbl>   <dbl>     <dbl>
    ##  1       1       1      3.21
    ##  2       1       2      3.90
    ##  3       1       3      4.56
    ##  4       2       1      3.38
    ##  5       2       2      3.62
    ##  6       2       3      4.95
    ##  7       3       1      3.41
    ##  8       3       2      3.63
    ##  9       3       3      4.16
    ## 10       4       1      3.34
    ## # … with 26 more rows
…
``` r
new_data %>%
  select(
    health_score, quarter, age_cat
  ) %>%
  group_by(
    quarter, age_cat
  ) %>%
  summarise(
    avg_score = mean(health_score)
  )
```

    ## # A tibble: 36 x 3
    ## # Groups:   quarter [12]
    ##    quarter age_cat avg_score
    ##      <dbl>   <dbl>     <dbl>
    ##  1       1       1      2.80
    ##  2       1       2      3.39
    ##  3       1       3      3.43
    ##  4       2       1      2.99
    ##  5       2       2      3.20
    ##  6       2       3      3.99
    ##  7       3       1      2.96
    ##  8       3       2      3.29
    ##  9       3       3      3.76
    ## 10       4       1      2.98
    ## # … with 26 more rows
…
  mutate(
    sex = factor(sex)
  ) %>%
  select(
     employee_id, quarter, sex
  ) %>%
  group_by(
    quarter, sex
  ) %>%
summarise(n = n()) %>%
mutate(freq = n / sum(n)*100) 
w
```

    ## # A tibble: 24 x 4
    ## # Groups:   quarter [12]
    ##    quarter sex       n  freq
    ##      <dbl> <fct> <int> <dbl>
    ##  1       1 0       305  50.8
    ##  2       1 1       295  49.2
    ##  3       2 0       399  50.9
    ##  4       2 1       385  49.1
    ##  5       3 0       503  49.8
    ##  6       3 1       507  50.2
    ##  7       4 0       632  49.1
    ##  8       4 1       655  50.9
    ##  9       5 0       726  48.9
    ## 10       5 1       759  51.1
    ## # … with 14 more rows
…
  mutate(
    race = factor(race)
  ) %>%
  select(
     quarter, race
  ) %>%
  group_by(
    quarter, race
  ) %>%
  summarise(n = n()) %>%
mutate(freq = n / sum(n)*100) 
j
```

    ## # A tibble: 36 x 4
    ## # Groups:   quarter [12]
    ##    quarter race      n  freq
    ##      <dbl> <fct> <int> <dbl>
    ##  1       1 1       336  56. 
    ##  2       1 2       167  27.8
    ##  3       1 3        97  16.2
    ##  4       2 1       432  55.1
    ##  5       2 2       222  28.3
    ##  6       2 3       130  16.6
    ##  7       3 1       561  55.5
    ##  8       3 2       293  29.0
    ##  9       3 3       156  15.4
    ## 10       4 1       718  55.8
    ## # … with 26 more rows
…
